method, cpu, gap, rateContrac, nbV, cap, MaxR, VKT, VUR, ZOR, GHG
N2V , 60.016 , 0.051 , 0.5 , 1 , 25 , 660 ,31.138 ,0.289 ,0.333 ,5.325
Kmeans , 60.015 , 0.045 , 0.5 , 1 , 25 , 660 ,34.783 ,0.271 ,0.375 ,5.948
N2V , 42.666 , 0.010 , 0.5 , 2 , 25 , 660 ,30.175 ,0.302 ,0.167 ,5.160
Kmeans , 42.923 , 0.010 , 0.5 , 2 , 25 , 660 ,32.936 ,0.305 ,0.188 ,5.632
N2V , 11.764 , 0.010 , 0.5 , 3 , 25 , 660 ,29.001 ,0.300 ,0.111 ,4.959
Kmeans , 12.337 , 0.010 , 0.5 , 3 , 25 , 660 ,33.978 ,0.294 ,0.125 ,5.810
N2V , 5.007 , 0.009 , 0.5 , 4 , 25 , 660 ,27.827 ,0.351 ,0.083 ,4.758
Kmeans , 5.683 , 0.010 , 0.5 , 4 , 25 , 660 ,32.804 ,0.287 ,0.094 ,5.609
N2V , 0.896 , 0.009 , 0.5 , 5 , 25 , 660 ,26.653 ,0.339 ,0.067 ,4.558
Kmeans , 1.364 , 0.010 , 0.5 , 5 , 25 , 660 ,31.630 ,0.312 ,0.075 ,5.409
N2V , 0.069 , 0.000 , 0.5 , 6 , 25 , 660 ,25.479 ,0.369 ,0.056 ,4.357
Kmeans , 0.072 , 0.000 , 0.5 , 6 , 25 , 660 ,30.456 ,0.347 ,0.062 ,5.208

N2V , 7.415 , 0.010 , 0.5 , 3 , 20 , 660 ,29.001 ,0.376 ,0.111 ,4.959
Kmeans , 8.193 , 0.010 , 0.5 , 3 , 20 , 660 ,33.978 ,0.462 ,0.125 ,5.810
N2V , 11.228 , 0.010 , 0.5 , 3 , 25 , 660 ,29.001 ,0.300 ,0.111 ,4.959
Kmeans , 12.235 , 0.010 , 0.5 , 3 , 25 , 660 ,33.978 ,0.294 ,0.125 ,5.810
N2V , 18.626 , 0.010 , 0.5 , 3 , 30 , 660 ,29.406 ,0.241 ,0.097 ,5.028
Kmeans , 31.898 , 0.010 , 0.5 , 3 , 30 , 660 ,32.077 ,0.457 ,0.097 ,5.485
N2V , 21.930 , 0.010 , 0.5 , 3 , 35 , 660 ,29.001 ,0.196 ,0.111 ,4.959
Kmeans , 44.885 , 0.010 , 0.5 , 3 , 35 , 660 ,32.077 ,0.392 ,0.097 ,5.485
N2V , 29.711 , 0.010 , 0.5 , 3 , 40 , 660 ,29.406 ,0.181 ,0.097 ,5.028
Kmeans , 47.696 , 0.010 , 0.5 , 3 , 40 , 660 ,32.077 ,0.343 ,0.097 ,5.485
N2V , 33.345 , 0.010 , 0.5 , 3 , 45 , 660 ,27.029 ,0.254 ,0.069 ,4.622
Kmeans , 46.443 , 0.010 , 0.5 , 3 , 45 , 660 ,27.777 ,0.211 ,0.083 ,4.750
N2V , 33.905 , 0.010 , 0.5 , 3 , 50 , 660 ,27.029 ,0.260 ,0.069 ,4.622
Kmeans , 42.275 , 0.010 , 0.5 , 3 , 50 , 660 ,27.777 ,0.256 ,0.083 ,4.750

N2V , 14.084 , 0.010 , 0.5 , 3 , 25 , 420 ,27.783 ,0.427 ,0.097 ,4.751
Kmeans , 14.366 , 0.010 , 0.5 , 3 , 25 , 420 ,27.783 ,0.427 ,0.097 ,4.751
N2V , 14.007 , 0.010 , 0.5 , 3 , 25 , 450.0 ,27.783 ,0.387 ,0.097 ,4.751
Kmeans , 14.112 , 0.010 , 0.5 , 3 , 25 , 450.0 ,27.783 ,0.366 ,0.097 ,4.751
N2V , 10.310 , 0.010 , 0.5 , 3 , 25 , 480 ,29.001 ,0.361 ,0.111 ,4.959
Kmeans , 14.856 , 0.010 , 0.5 , 3 , 25 , 480 ,32.513 ,0.401 ,0.111 ,5.560
N2V , 9.027 , 0.010 , 0.5 , 3 , 25 , 510.0 ,23.219 ,0.507 ,0.083 ,3.970
Kmeans , 10.808 , 0.010 , 0.5 , 3 , 25 , 510.0 ,33.978 ,0.370 ,0.125 ,5.810
N2V , 9.234 , 0.010 , 0.5 , 3 , 25 , 540 ,29.001 ,0.364 ,0.111 ,4.959
Kmeans , 10.180 , 0.010 , 0.5 , 3 , 25 , 540 ,33.978 ,0.294 ,0.125 ,5.810
N2V , 9.989 , 0.010 , 0.5 , 3 , 25 , 570.0 ,29.001 ,0.339 ,0.111 ,4.959
Kmeans , 9.896 , 0.010 , 0.5 , 3 , 25 , 570.0 ,33.978 ,0.294 ,0.125 ,5.810
N2V , 9.790 , 0.010 , 0.5 , 3 , 25 , 600 ,29.001 ,0.300 ,0.111 ,4.959
Kmeans , 9.807 , 0.010 , 0.5 , 3 , 25 , 600 ,33.978 ,0.294 ,0.125 ,5.810
N2V , 10.192 , 0.010 , 0.5 , 3 , 25 , 630.0 ,29.001 ,0.300 ,0.111 ,4.959
Kmeans , 10.145 , 0.010 , 0.5 , 3 , 25 , 630.0 ,33.978 ,0.294 ,0.125 ,5.810
N2V , 9.473 , 0.010 , 0.5 , 3 , 25 , 690.0 ,29.001 ,0.300 ,0.111 ,4.959
Kmeans , 10.239 , 0.010 , 0.5 , 3 , 25 , 690.0 ,33.978 ,0.294 ,0.125 ,5.810
N2V , 10.774 , 0.010 , 0.5 , 3 , 25 , 720 ,29.001 ,0.313 ,0.111 ,4.959
Kmeans , 10.085 , 0.010 , 0.5 , 3 , 25 , 720 ,33.978 ,0.294 ,0.125 ,5.810
